id;nome_fantasia;razao_social;cnpj;tefelone;email;rua;numero;bairro;cep;cidade;estado
1;paradigm Mount;Multi-tiered Solutions;regional;45085;Davin.Blanda13@hotmail.com;Franc Personal Vermont;64810;Corporate;Bedfordshire Brand;Market services;Buckinghamshire up Texas
2;transmit France Music;Courts;seize;7043;Carlotta_Quigley16@hotmail.com;Investment invoice Division;6467;array Specialist Rubber;Nevada digital;Shirt Internal Interface;bricks-and-clicks RSS Loaf
3;Corporate dot-com facilitate;Refined;quantify Baby;33841;Cicero_Hayes@yahoo.com;programming Identity;40327;program invoice Future;Fantastic Toys Handcrafted;bandwidth-monitored circuit;Dynamic Azerbaijan
4;expedite Granite;Interactions Frozen;Burundi Secured Handmade;24548;Ransom.Lesch@yahoo.com;Valleys Concrete invoice;15076;Human Florida Jersey;invoice;content parse state;bricks-and-clicks navigate Row
5;Cotton modular Marketing;wireless;Health Multi-channelled;99660;Sheridan.Quigley19@hotmail.com;payment;54115;Greece ubiquitous;International;Customer-focused interface;Technician Licensed up
6;card Berkshire Maine;salmon fuchsia;Investor black;57561;Hobart99@yahoo.com;Ergonomic;93338;Savings Kids Cambridgeshire;Unbranded;Soft deposit Directives;Advanced pixel alarm
7;parallelism;Berkshire sensor Car;THX Federation Metal;54132;Julien_Dickinson@yahoo.com;channels;37935;Track;Intranet Berkshire protocol;Real services green;Account Missouri
8;Practical Frozen;supply-chains lime backing;solid;52868;Cathryn10@yahoo.com;Bermudian Estate connecting;23201;Concrete override navigating;optical asynchronous;Orchestrator Money transitional;input
9;Global Shoes;salmon Swedish;Intelligent;63926;Camden92@gmail.com;Accounts;27161;Tuna intuitive;Global Loan red;Synergized;Handcrafted
10;solid;Republic;deposit bypassing;17649;Joe27@yahoo.com;Latvian Awesome;23163;expedite Refined;Concrete Connecticut;Pizza deposit;FTP payment
